^C:\USERS\500192275\SOURCE\REPOS\GONEMADLIB\GONEMADLIB\DEBUG\MAIN.OBJ
C:\USERS\500192275\SOURCE\REPOS\GONEMADLIB\DEBUG\GONEMADLIB.EXE
C:\USERS\500192275\SOURCE\REPOS\GONEMADLIB\GONEMADLIB\DEBUG\GONEMADLIB.ILK
C:\USERS\500192275\SOURCE\REPOS\GONEMADLIB\DEBUG\GONEMADLIB.PDB
